[api-updater (non-obsolete-error-filter)] 1/28/2021 12:20:42 PM : Starting D:/Zenbook Laptop/Game Dev Programs/2020.2.2f1/Editor/Data/Tools/ScriptUpdater/APIUpdater.NonObsoleteApiUpdaterDetector.exe
[api-updater (non-obsolete-error-filter)] 
----------------------------------
jit/startup time      : 767.9465ms
moved types parse time: 118ms
candidates parse time : 1ms
C# parse time         : 697ms
candidates check time : 55ms
console write time    : 1ms

